<?xml version="1.0" encoding="UTF-8" standalone="no"?>
<!-- Created with Inkscape (http://www.inkscape.org/) -->

<svg
   xmlns:dc="http://purl.org/dc/elements/1.1/"
   xmlns:cc="http://creativecommons.org/ns#"
   xmlns:rdf="http://www.w3.org/1999/02/22-rdf-syntax-ns#"
   xmlns:svg="http://www.w3.org/2000/svg"
   xmlns="http://www.w3.org/2000/svg"
   xmlns:sodipodi="http://sodipodi.sourceforge.net/DTD/sodipodi-0.dtd"
   xmlns:inkscape="http://www.inkscape.org/namespaces/inkscape"
   width="120.18037"
   height="379.99997"
   viewBox="0 0 31.797722 100.54167"
   version="1.1"
   id="svg4541"
   sodipodi:docname="VCF.svg"
   inkscape:version="0.92.3 (2405546, 2018-03-11)">
  <defs
     id="defs4535" />
  <sodipodi:namedview
     id="base"
     pagecolor="#ffffff"
     bordercolor="#666666"
     borderopacity="1.0"
     inkscape:pageopacity="0.0"
     inkscape:pageshadow="2"
     inkscape:zoom="2"
     inkscape:cx="55.543848"
     inkscape:cy="196.24964"
     inkscape:document-units="mm"
     inkscape:current-layer="g13178"
     showgrid="false"
     fit-margin-top="0"
     fit-margin-left="0"
     fit-margin-right="0"
     fit-margin-bottom="0"
     inkscape:window-width="1920"
     inkscape:window-height="1008"
     inkscape:window-x="0"
     inkscape:window-y="287"
     inkscape:window-maximized="0"
     units="px" />
  <metadata
     id="metadata4538">
    <rdf:RDF>
      <cc:Work
         rdf:about="">
        <dc:format>image/svg+xml</dc:format>
        <dc:type
           rdf:resource="http://purl.org/dc/dcmitype/StillImage" />
        <dc:title />
      </cc:Work>
    </rdf:RDF>
  </metadata>
  <g
     inkscape:label="Layer 1"
     inkscape:groupmode="layer"
     id="layer1"
     transform="translate(-49.620829,-52.061968)">
    <g
       transform="matrix(0.27602379,0,0,0.27602379,354.09618,57.736346)"
       id="g13122"
       style="stroke-width:0.9585526">
      <g
         transform="translate(-167.07644,-20.557569)"
         id="g13178"
         style="stroke-width:0.91882312">
        <path
           style="fill:#aa87de;fill-opacity:1;fill-rule:nonzero;stroke:none;stroke-width:0.92153925"
           d="m -935.99652,-2.2358448e-4 h 115.18683 V 364.22792 h -115.18683 z m 0,0"
           id="path25057"
           inkscape:connector-curvature="0" />
        <path
           style="fill:#000000;fill-opacity:1;fill-rule:nonzero;stroke:none;stroke-width:0.91882312"
           d="m -828.96098,297.40625 c 0,-1.55859 -1.27735,-2.83203 -2.83594,-2.83203 h -21.77344 c -1.55859,0 -2.83593,1.27344 -2.83593,2.83203 v 33.08984 c 0,1.5586 1.27734,2.83594 2.83593,2.83594 h 21.77344 c 1.55859,0 2.83594,-1.27734 2.83594,-2.83594 z m 0,0"
           id="path25247"
           inkscape:connector-curvature="0" />
        <path
           style="fill:#000000;fill-opacity:1;fill-rule:nonzero;stroke:none;stroke-width:0.91882312"
           d="m -864.67583,297.40625 c 0,-1.55859 -1.27734,-2.83203 -2.83593,-2.83203 h -21.77735 c -1.55859,0 -2.83203,1.27344 -2.83203,2.83203 v 33.08984 c 0,1.5586 1.27344,2.83594 2.83203,2.83594 h 21.77735 c 1.55859,0 2.83593,-1.27734 2.83593,-2.83594 z m 0,0"
           id="path25259"
           inkscape:connector-curvature="0" />
        <path
           inkscape:connector-curvature="0"
           id="path11914"
           d="m -923.18889,259.00628 c 0,0.21875 0.1875,0.39063 0.40625,0.39063 0.21875,0 0.40625,-0.17188 0.40625,-0.39063 v -1.5 h 1.95313 c 0.20312,0 0.375,-0.15625 0.375,-0.35937 0,-0.20313 -0.17188,-0.35938 -0.375,-0.35938 h -1.95313 v -1.25 h 2.25 c 0.20313,0 0.35938,-0.15625 0.35938,-0.35937 0,-0.20313 -0.15625,-0.35938 -0.35938,-0.35938 h -2.65625 c -0.21875,0 -0.40625,0.17188 -0.40625,0.40625 z m 0,0"
           style="fill:#000000;fill-opacity:1;stroke:none;stroke-width:0.91882312" />
        <path
           inkscape:connector-curvature="0"
           id="path11910"
           d="m -918.78642,259.00628 c 0,0.21875 0.1875,0.39063 0.40625,0.39063 0.21875,0 0.40625,-0.17188 0.40625,-0.39063 v -1.23437 h 1 l 1.10937,1.42187 c 0.0937,0.125 0.20313,0.20313 0.39063,0.20313 0.1875,0 0.375,-0.14063 0.375,-0.375 0,-0.125 -0.0469,-0.20313 -0.125,-0.29688 l -0.875,-1.09375 c 0.60937,-0.20312 1.03125,-0.64062 1.03125,-1.35937 v -0.0156 c 0,-0.40625 -0.125,-0.73437 -0.375,-0.98437 -0.28125,-0.28125 -0.73438,-0.45313 -1.3125,-0.45313 h -1.625 c -0.21875,0 -0.40625,0.17188 -0.40625,0.40625 z m 0.8125,-1.9375 v -1.53125 h 1.15625 c 0.59375,0 0.9375,0.26563 0.9375,0.76563 0,0.46875 -0.35938,0.76562 -0.9375,0.76562 z m 0,0"
           style="fill:#000000;fill-opacity:1;stroke:none;stroke-width:0.91882312" />
        <path
           inkscape:connector-curvature="0"
           id="path11906"
           d="m -913.45188,259.36566 h 2.6875 c 0.1875,0 0.35937,-0.15625 0.35937,-0.35938 0,-0.1875 -0.17187,-0.35937 -0.35937,-0.35937 h -2.28125 v -1.21875 h 1.95312 c 0.1875,0 0.35938,-0.15625 0.35938,-0.34375 0,-0.20313 -0.17188,-0.375 -0.35938,-0.375 h -1.95312 v -1.17188 h 2.25 c 0.1875,0 0.34375,-0.15625 0.34375,-0.35937 0,-0.20313 -0.15625,-0.35938 -0.34375,-0.35938 h -2.65625 c -0.21875,0 -0.40625,0.17188 -0.40625,0.40625 v 3.73438 c 0,0.23437 0.1875,0.40625 0.40625,0.40625 z m 0,0"
           style="fill:#000000;fill-opacity:1;stroke:none;stroke-width:0.91882312" />
        <path
           inkscape:connector-curvature="0"
           id="path11902"
           d="m -907.24675,259.44378 c 0.53125,0 1,-0.15625 1.39062,-0.42187 l 0.32813,0.28125 c 0.0625,0.0781 0.15625,0.125 0.28125,0.125 0.20312,0 0.375,-0.17188 0.375,-0.39063 0,-0.14062 -0.0625,-0.23437 -0.15625,-0.3125 l -0.28125,-0.23437 c 0.28125,-0.40625 0.45312,-0.89063 0.45312,-1.40625 0,-1.28125 -0.96875,-2.34375 -2.375,-2.34375 -1.39062,0 -2.375,1.0625 -2.375,2.34375 v 0.0156 c 0,1.28125 0.96875,2.34375 2.35938,2.34375 z m 0.23437,-1.4375 0.57813,0.48438 c -0.23438,0.14062 -0.5,0.21875 -0.79688,0.21875 -0.90625,0 -1.54687,-0.73438 -1.54687,-1.625 0,-0.89063 0.64062,-1.60938 1.53125,-1.60938 0.90625,0 1.54687,0.73438 1.54687,1.60938 v 0.0156 c 0,0.32813 -0.0781,0.625 -0.21875,0.875 l -0.57812,-0.54687 c -0.0937,-0.0781 -0.17188,-0.10938 -0.28125,-0.10938 -0.20313,0 -0.375,0.17188 -0.375,0.39063 0,0.125 0.0625,0.21875 0.14062,0.29687 z m 0,0"
           style="fill:#000000;fill-opacity:1;stroke:none;stroke-width:0.91882312" />
        <path
           inkscape:connector-curvature="0"
           id="path11898"
           d="m -852.91088,258.95941 c 0,0.23437 0.1875,0.40625 0.40625,0.40625 h 1.29688 c 1.4375,0 2.42187,-1 2.42187,-2.28125 0,-1.28125 -0.98437,-2.26563 -2.42187,-2.26563 h -1.29688 c -0.21875,0 -0.40625,0.17188 -0.40625,0.40625 z m 0.8125,-0.32813 v -3.09375 h 0.89063 c 0.95312,0 1.57812,0.65625 1.57812,1.54688 v 0.0156 c 0,0.89063 -0.625,1.53125 -1.57812,1.53125 z m 0,0"
           style="fill:#000000;fill-opacity:1;stroke:none;stroke-width:0.91882312" />
        <path
           inkscape:connector-curvature="0"
           id="path11894"
           d="m -847.63676,259.00628 c 0,0.21875 0.1875,0.39063 0.40625,0.39063 0.21875,0 0.40625,-0.17188 0.40625,-0.39063 v -1.23437 h 1 l 1.10937,1.42187 c 0.0937,0.125 0.20313,0.20313 0.39063,0.20313 0.1875,0 0.375,-0.14063 0.375,-0.375 0,-0.125 -0.0469,-0.20313 -0.125,-0.29688 l -0.875,-1.09375 c 0.60937,-0.20312 1.03125,-0.64062 1.03125,-1.35937 v -0.0156 c 0,-0.40625 -0.125,-0.73437 -0.375,-0.98437 -0.28125,-0.28125 -0.73438,-0.45313 -1.3125,-0.45313 h -1.625 c -0.21875,0 -0.40625,0.17188 -0.40625,0.40625 z m 0.8125,-1.9375 v -1.53125 h 1.15625 c 0.59375,0 0.9375,0.26563 0.9375,0.76563 0,0.46875 -0.35938,0.76562 -0.9375,0.76562 z m 0,0"
           style="fill:#000000;fill-opacity:1;stroke:none;stroke-width:0.91882312" />
        <path
           inkscape:connector-curvature="0"
           id="path11890"
           d="m -842.68239,259.00628 c 0,0.21875 0.1875,0.39063 0.40625,0.39063 0.21875,0 0.40625,-0.17188 0.40625,-0.39063 v -3.82812 c 0,-0.21875 -0.1875,-0.39063 -0.40625,-0.39063 -0.21875,0 -0.40625,0.17188 -0.40625,0.39063 z m 0,0"
           style="fill:#000000;fill-opacity:1;stroke:none;stroke-width:0.91882312" />
        <path
           inkscape:connector-curvature="0"
           id="path11886"
           d="m -838.78353,259.42816 h 0.0469 c 0.21875,0 0.375,-0.125 0.45312,-0.32813 l 1.60938,-3.76562 c 0.0156,-0.0469 0.0312,-0.10938 0.0312,-0.17188 0,-0.20312 -0.17188,-0.375 -0.39063,-0.375 -0.1875,0 -0.32812,0.125 -0.39062,0.25 l -1.32813,3.3125 -1.3125,-3.28125 c -0.0625,-0.17187 -0.20312,-0.28125 -0.40625,-0.28125 -0.23437,0 -0.40625,0.17188 -0.40625,0.39063 0,0.0625 0.0156,0.125 0.0469,0.1875 l 1.59375,3.73437 c 0.0781,0.20313 0.23437,0.32813 0.45312,0.32813 z m 0,0"
           style="fill:#000000;fill-opacity:1;stroke:none;stroke-width:0.91882312" />
        <path
           inkscape:connector-curvature="0"
           id="path11882"
           d="m -835.25557,259.36566 h 2.6875 c 0.1875,0 0.35938,-0.15625 0.35938,-0.35938 0,-0.1875 -0.17188,-0.35937 -0.35938,-0.35937 h -2.28125 v -1.21875 h 1.95313 c 0.1875,0 0.35937,-0.15625 0.35937,-0.34375 0,-0.20313 -0.17187,-0.375 -0.35937,-0.375 h -1.95313 v -1.17188 h 2.25 c 0.1875,0 0.34375,-0.15625 0.34375,-0.35937 0,-0.20313 -0.15625,-0.35938 -0.34375,-0.35938 h -2.65625 c -0.21875,0 -0.40625,0.17188 -0.40625,0.40625 v 3.73438 c 0,0.23437 0.1875,0.40625 0.40625,0.40625 z m 0,0"
           style="fill:#000000;fill-opacity:1;stroke:none;stroke-width:0.91882312" />
        <path
           inkscape:connector-curvature="0"
           id="path11878"
           d="m -884.64387,259.00628 c 0,0.21875 0.1875,0.39063 0.40625,0.39063 0.21875,0 0.40625,-0.17188 0.40625,-0.39063 v -1.23437 h 1 l 1.10937,1.42187 c 0.0937,0.125 0.20313,0.20313 0.39063,0.20313 0.1875,0 0.375,-0.14063 0.375,-0.375 0,-0.125 -0.0469,-0.20313 -0.125,-0.29688 l -0.875,-1.09375 c 0.60937,-0.20312 1.03125,-0.64062 1.03125,-1.35937 v -0.0156 c 0,-0.40625 -0.125,-0.73437 -0.375,-0.98437 -0.28125,-0.28125 -0.73438,-0.45313 -1.3125,-0.45313 h -1.625 c -0.21875,0 -0.40625,0.17188 -0.40625,0.40625 z m 0.8125,-1.9375 v -1.53125 h 1.15625 c 0.59375,0 0.9375,0.26563 0.9375,0.76563 0,0.46875 -0.35938,0.76562 -0.9375,0.76562 z m 0,0"
           style="fill:#000000;fill-opacity:1;stroke:none;stroke-width:0.91882312" />
        <path
           inkscape:connector-curvature="0"
           id="path11874"
           d="m -879.30867,259.36566 h 2.6875 c 0.1875,0 0.35938,-0.15625 0.35938,-0.35938 0,-0.1875 -0.17188,-0.35937 -0.35938,-0.35937 h -2.28125 v -1.21875 h 1.95313 c 0.1875,0 0.35937,-0.15625 0.35937,-0.34375 0,-0.20313 -0.17187,-0.375 -0.35937,-0.375 h -1.95313 v -1.17188 h 2.25 c 0.1875,0 0.34375,-0.15625 0.34375,-0.35937 0,-0.20313 -0.15625,-0.35938 -0.34375,-0.35938 h -2.65625 c -0.21875,0 -0.40625,0.17188 -0.40625,0.40625 v 3.73438 c 0,0.23437 0.1875,0.40625 0.40625,0.40625 z m 0,0"
           style="fill:#000000;fill-opacity:1;stroke:none;stroke-width:0.91882312" />
        <path
           inkscape:connector-curvature="0"
           id="path11870"
           d="m -873.57119,259.42816 c 0.96875,0 1.625,-0.5 1.625,-1.35938 v -0.0156 c 0,-0.75 -0.48437,-1.09375 -1.45312,-1.32813 -0.875,-0.20312 -1.07813,-0.35937 -1.07813,-0.71875 0,-0.3125 0.26563,-0.54687 0.73438,-0.54687 0.35937,0 0.70312,0.10937 1.04687,0.34375 0.0625,0.0469 0.125,0.0625 0.20313,0.0625 0.21875,0 0.39062,-0.17188 0.39062,-0.375 0,-0.15625 -0.0937,-0.26563 -0.1875,-0.3125 -0.40625,-0.28125 -0.85937,-0.42188 -1.4375,-0.42188 -0.90625,0 -1.54687,0.53125 -1.54687,1.3125 v 0.0156 c 0,0.84375 0.53125,1.125 1.5,1.35937 0.85937,0.1875 1.03125,0.375 1.03125,0.6875 v 0.0156 c 0,0.34375 -0.3125,0.57812 -0.79688,0.57812 -0.5,0 -0.90625,-0.17187 -1.28125,-0.46875 -0.0469,-0.0469 -0.125,-0.0781 -0.23437,-0.0781 -0.20313,0 -0.375,0.17187 -0.375,0.375 0,0.125 0.0625,0.23437 0.15625,0.3125 0.5,0.375 1.09375,0.5625 1.70312,0.5625 z m 0,0"
           style="fill:#000000;fill-opacity:1;stroke:none;stroke-width:0.91882312" />
        <path
           inkscape:connector-curvature="0"
           id="path11866"
           d="m -892.06795,46.742172 c 0,0.34375 0.26563,0.609375 0.60938,0.609375 0.34375,0 0.60937,-0.265625 0.60937,-0.609375 v -2.28125 h 3.03125 c 0.29688,0 0.54688,-0.25 0.54688,-0.5625 0,-0.3125 -0.25,-0.5625 -0.54688,-0.5625 h -3.03125 v -1.90625 h 3.46875 c 0.3125,0 0.5625,-0.25 0.5625,-0.5625 0,-0.3125 -0.25,-0.5625 -0.5625,-0.5625 h -4.07812 c -0.34375,0 -0.60938,0.265625 -0.60938,0.625 z m 0,0"
           style="fill:#000000;fill-opacity:1;stroke:none;stroke-width:0.91882312" />
        <path
           inkscape:connector-curvature="0"
           id="path11862"
           d="m -885.47496,46.742172 c 0,0.34375 0.26563,0.609375 0.60938,0.609375 0.34375,0 0.60937,-0.265625 0.60937,-0.609375 v -1.875 h 1.5625 l 1.6875,2.171875 c 0.14063,0.1875 0.32813,0.3125 0.60938,0.3125 0.29687,0 0.57812,-0.234375 0.57812,-0.5625 0,-0.1875 -0.0781,-0.328125 -0.1875,-0.46875 l -1.34375,-1.703125 c 0.9375,-0.28125 1.59375,-0.96875 1.59375,-2.078125 v -0.03125 c 0,-0.609375 -0.21875,-1.125 -0.57812,-1.5 -0.45313,-0.4375 -1.14063,-0.703125 -2.03125,-0.703125 h -2.5 c -0.34375,0 -0.60938,0.265625 -0.60938,0.625 z m 1.21875,-2.96875 v -2.34375 h 1.79688 c 0.90625,0 1.45312,0.40625 1.45312,1.15625 v 0.01563 c 0,0.71875 -0.5625,1.171875 -1.4375,1.171875 z m 0,0"
           style="fill:#000000;fill-opacity:1;stroke:none;stroke-width:0.91882312" />
        <path
           inkscape:connector-curvature="0"
           id="path11858"
           d="m -877.45457,47.304672 h 4.125 c 0.29687,0 0.54687,-0.234375 0.54687,-0.546875 0,-0.296875 -0.25,-0.546875 -0.54687,-0.546875 h -3.51563 v -1.890625 h 3.01563 c 0.29687,0 0.54687,-0.234375 0.54687,-0.53125 0,-0.3125 -0.25,-0.5625 -0.54687,-0.5625 h -3.01563 v -1.828125 h 3.46875 c 0.29688,0 0.54688,-0.234375 0.54688,-0.546875 0,-0.296875 -0.25,-0.546875 -0.54688,-0.546875 h -4.07812 c -0.34375,0 -0.60938,0.265625 -0.60938,0.625 v 5.75 c 0,0.359375 0.26563,0.625 0.60938,0.625 z m 0,0"
           style="fill:#000000;fill-opacity:1;stroke:none;stroke-width:0.91882312" />
        <path
           inkscape:connector-curvature="0"
           id="path11854"
           d="m -868.09583,47.429672 c 0.8125,0 1.54687,-0.25 2.14062,-0.671875 l 0.5,0.453125 c 0.10938,0.109375 0.25,0.1875 0.42188,0.1875 0.32812,0 0.57812,-0.28125 0.57812,-0.59375 0,-0.203125 -0.0781,-0.359375 -0.21875,-0.484375 l -0.45312,-0.359375 c 0.45312,-0.609375 0.70312,-1.359375 0.70312,-2.15625 v -0.01563 c 0,-1.96875 -1.5,-3.609375 -3.64062,-3.609375 -2.15625,0 -3.67188,1.65625 -3.67188,3.625 v 0.01563 c 0,1.96875 1.5,3.609375 3.64063,3.609375 z m 0.35937,-2.203125 0.875,0.734375 c -0.34375,0.203125 -0.75,0.328125 -1.20312,0.328125 -1.39063,0 -2.39063,-1.125 -2.39063,-2.484375 v -0.01563 c 0,-1.359375 0.96875,-2.46875 2.35938,-2.46875 1.39062,0 2.39062,1.125 2.39062,2.484375 v 0.01563 c 0,0.5 -0.125,0.953125 -0.34375,1.328125 l -0.90625,-0.8125 c -0.14062,-0.125 -0.25,-0.1875 -0.42187,-0.1875 -0.32813,0 -0.57813,0.28125 -0.57813,0.59375 0,0.21875 0.0781,0.359375 0.21875,0.484375 z m 0,0"
           style="fill:#000000;fill-opacity:1;stroke:none;stroke-width:0.91882312" />
        <path
           inkscape:connector-curvature="0"
           id="path11850"
           d="m -924.99714,189.91793 c 0,0.28125 0.21875,0.5 0.5,0.5 0.26563,0 0.48438,-0.21875 0.48438,-0.5 v -1.82812 h 2.42187 c 0.25,0 0.4375,-0.20313 0.4375,-0.45313 0,-0.23437 -0.1875,-0.4375 -0.4375,-0.4375 h -2.42187 v -1.53125 h 2.78125 c 0.25,0 0.4375,-0.20312 0.4375,-0.45312 0,-0.25 -0.1875,-0.4375 -0.4375,-0.4375 h -3.26563 c -0.28125,0 -0.5,0.20312 -0.5,0.48437 z m 0,0"
           style="fill:#000000;fill-opacity:1;stroke:none;stroke-width:0.91882312" />
        <path
           inkscape:connector-curvature="0"
           id="path11846"
           d="m -919.64195,189.91793 c 0,0.28125 0.21875,0.5 0.5,0.5 0.26563,0 0.48438,-0.21875 0.48438,-0.5 v -1.5 h 1.23437 l 1.35938,1.73438 c 0.125,0.15625 0.26562,0.26562 0.48437,0.26562 0.25,0 0.46875,-0.1875 0.46875,-0.46875 0,-0.14062 -0.0625,-0.25 -0.15625,-0.375 l -1.0625,-1.34375 c 0.75,-0.23437 1.26563,-0.78125 1.26563,-1.67187 v -0.0156 c 0,-0.48437 -0.17188,-0.90625 -0.46875,-1.21875 -0.35938,-0.34375 -0.90625,-0.54687 -1.60938,-0.54687 h -2 c -0.28125,0 -0.5,0.20312 -0.5,0.48437 z m 0.98438,-2.375 v -1.875 h 1.4375 c 0.71875,0 1.15625,0.32813 1.15625,0.92188 v 0.0156 c 0,0.57813 -0.45313,0.9375 -1.15625,0.9375 z m 0,0"
           style="fill:#000000;fill-opacity:1;stroke:none;stroke-width:0.91882312" />
        <path
           inkscape:connector-curvature="0"
           id="path11842"
           d="m -913.13554,190.37106 h 3.29688 c 0.23437,0 0.4375,-0.1875 0.4375,-0.4375 0,-0.25 -0.20313,-0.4375 -0.4375,-0.4375 h -2.8125 v -1.51563 h 2.40625 c 0.25,0 0.4375,-0.1875 0.4375,-0.42187 0,-0.25 -0.1875,-0.45313 -0.4375,-0.45313 h -2.40625 v -1.45312 h 2.76562 c 0.25,0 0.4375,-0.1875 0.4375,-0.4375 0,-0.25 -0.1875,-0.4375 -0.4375,-0.4375 h -3.25 c -0.28125,0 -0.5,0.20312 -0.5,0.48437 v 4.60938 c 0,0.28125 0.21875,0.5 0.5,0.5 z m 0,0"
           style="fill:#000000;fill-opacity:1;stroke:none;stroke-width:0.91882312" />
        <path
           inkscape:connector-curvature="0"
           id="path11838"
           d="m -905.56609,190.46481 c 0.65625,0 1.23438,-0.1875 1.70313,-0.53125 l 0.40625,0.35937 c 0.0781,0.0937 0.20312,0.15625 0.34375,0.15625 0.25,0 0.45312,-0.21875 0.45312,-0.48437 0,-0.15625 -0.0625,-0.28125 -0.17187,-0.375 l -0.35938,-0.29688 c 0.35938,-0.48437 0.5625,-1.09375 0.5625,-1.71875 v -0.0156 c 0,-1.57813 -1.20312,-2.89063 -2.92187,-2.89063 -1.71875,0 -2.9375,1.32813 -2.9375,2.90625 v 0.0156 c 0,1.57812 1.20312,2.875 2.92187,2.875 z m 0.29688,-1.75 0.6875,0.57812 c -0.26563,0.17188 -0.59375,0.26563 -0.96875,0.26563 -1.10938,0 -1.90625,-0.90625 -1.90625,-1.98438 v -0.0156 c 0,-1.09375 0.78125,-1.98438 1.89062,-1.98438 1.10938,0 1.90625,0.90625 1.90625,2 v 0.0156 c 0,0.39062 -0.0937,0.75 -0.26562,1.0625 l -0.73438,-0.65625 c -0.10937,-0.0937 -0.1875,-0.14063 -0.34375,-0.14063 -0.25,0 -0.45312,0.21875 -0.45312,0.46875 0,0.17188 0.0625,0.28125 0.1875,0.39063 z m 0,0"
           style="fill:#000000;fill-opacity:1;stroke:none;stroke-width:0.91882312" />
        <path
           inkscape:connector-curvature="0"
           id="path11834"
           d="m -896.4442,190.46481 c 0.90625,0 1.51562,-0.28125 2.04687,-0.75 0.0781,-0.0781 0.15625,-0.20313 0.15625,-0.35938 0,-0.23437 -0.21875,-0.45312 -0.46875,-0.45312 -0.125,0 -0.21875,0.0469 -0.29687,0.10937 -0.40625,0.34375 -0.8125,0.54688 -1.39063,0.54688 -1.07812,0 -1.85937,-0.89063 -1.85937,-1.98438 v -0.0156 c 0,-1.09375 0.78125,-1.98438 1.85937,-1.98438 0.53125,0 0.9375,0.20313 1.32813,0.51563 0.0625,0.0469 0.15625,0.0937 0.29687,0.0937 0.26563,0 0.48438,-0.21875 0.48438,-0.48438 0,-0.17187 -0.0781,-0.3125 -0.1875,-0.39062 -0.48438,-0.375 -1.0625,-0.64063 -1.92188,-0.64063 -1.70312,0 -2.89062,1.3125 -2.89062,2.90625 v 0.0156 c 0,1.60937 1.21875,2.875 2.84375,2.875 z m 0,0"
           style="fill:#000000;fill-opacity:1;stroke:none;stroke-width:0.91882312" />
        <path
           inkscape:connector-curvature="0"
           id="path11830"
           d="m -890.73524,190.44918 h 0.0469 c 0.28125,0 0.46875,-0.15625 0.57812,-0.39062 l 1.96875,-4.64063 c 0.0156,-0.0625 0.0469,-0.14062 0.0469,-0.21875 0,-0.26562 -0.21875,-0.46875 -0.48438,-0.46875 -0.23437,0 -0.42187,0.15625 -0.48437,0.32813 l -1.64063,4.0625 -1.60937,-4.03125 c -0.0781,-0.21875 -0.25,-0.35938 -0.5,-0.35938 -0.28125,0 -0.5,0.21875 -0.5,0.48438 0,0.0781 0.0312,0.15625 0.0625,0.23437 l 1.95312,4.60938 c 0.10938,0.23437 0.28125,0.39062 0.5625,0.39062 z m 0,0"
           style="fill:#000000;fill-opacity:1;stroke:none;stroke-width:0.91882312" />
        <path
           inkscape:connector-curvature="0"
           id="path11826"
           d="m -916.01314,127.52594 c 0,0.28125 0.21875,0.5 0.5,0.5 0.26562,0 0.48437,-0.21875 0.48437,-0.5 v -1.82812 h 2.42188 c 0.25,0 0.4375,-0.20313 0.4375,-0.45313 0,-0.23437 -0.1875,-0.4375 -0.4375,-0.4375 h -2.42188 v -1.53125 h 2.78125 c 0.25,0 0.4375,-0.20312 0.4375,-0.45312 0,-0.25 -0.1875,-0.4375 -0.4375,-0.4375 h -3.26562 c -0.28125,0 -0.5,0.20312 -0.5,0.48437 z m 0,0"
           style="fill:#000000;fill-opacity:1;stroke:none;stroke-width:0.91882312" />
        <path
           inkscape:connector-curvature="0"
           id="path11822"
           d="m -910.62266,127.52594 c 0,0.28125 0.20313,0.5 0.48438,0.5 0.28125,0 0.5,-0.21875 0.5,-0.5 v -4.70312 c 0,-0.26563 -0.21875,-0.48438 -0.5,-0.48438 -0.28125,0 -0.48438,0.21875 -0.48438,0.48438 z m 0,0"
           style="fill:#000000;fill-opacity:1;stroke:none;stroke-width:0.91882312" />
        <path
           inkscape:connector-curvature="0"
           id="path11818"
           d="m -907.95314,127.54157 c 0,0.26562 0.21875,0.48437 0.48438,0.48437 0.26562,0 0.48437,-0.21875 0.48437,-0.48437 v -3.54688 l 2.875,3.71875 c 0.14063,0.17188 0.28125,0.29688 0.51563,0.29688 h 0.0469 c 0.26563,0 0.46875,-0.21875 0.46875,-0.48438 v -4.70312 c 0,-0.26563 -0.20312,-0.48438 -0.48437,-0.48438 -0.26563,0 -0.48438,0.21875 -0.48438,0.48438 v 3.4375 l -2.79687,-3.625 c -0.125,-0.17188 -0.26563,-0.28125 -0.51563,-0.28125 h -0.0937 c -0.28125,0 -0.5,0.21875 -0.5,0.48437 z m 0,0"
           style="fill:#000000;fill-opacity:1;stroke:none;stroke-width:0.91882312" />
        <path
           inkscape:connector-curvature="0"
           id="path11814"
           d="m -900.89955,127.97907 h 3.29688 c 0.23437,0 0.4375,-0.1875 0.4375,-0.4375 0,-0.25 -0.20313,-0.4375 -0.4375,-0.4375 h -2.8125 v -1.51563 h 2.40625 c 0.25,0 0.4375,-0.1875 0.4375,-0.42187 0,-0.25 -0.1875,-0.45313 -0.4375,-0.45313 h -2.40625 v -1.45312 h 2.76562 c 0.25,0 0.4375,-0.1875 0.4375,-0.4375 0,-0.25 -0.1875,-0.4375 -0.4375,-0.4375 h -3.25 c -0.28125,0 -0.5,0.20312 -0.5,0.48437 v 4.60938 c 0,0.28125 0.21875,0.5 0.5,0.5 z m 0,0"
           style="fill:#000000;fill-opacity:1;stroke:none;stroke-width:0.91882312" />
        <path
           style="fill:none;stroke:#000000;stroke-width:0.47927633;stroke-linecap:round;stroke-linejoin:round;stroke-miterlimit:10;stroke-opacity:1"
           d="m -928.80083,245.32813 h 100.80079"
           id="path25367"
           inkscape:connector-curvature="0" />
        <path
           inkscape:connector-curvature="0"
           id="path11798"
           d="m -917.19441,302.9658 c 0,0.21875 0.1875,0.39062 0.40625,0.39062 0.21875,0 0.40625,-0.17187 0.40625,-0.39062 v -3.82813 c 0,-0.21875 -0.1875,-0.39062 -0.40625,-0.39062 -0.21875,0 -0.40625,0.17187 -0.40625,0.39062 z m 0,0"
           style="fill:#000000;fill-opacity:1;stroke:none;stroke-width:0.91882312" />
        <path
           inkscape:connector-curvature="0"
           id="path11794"
           d="m -914.97276,302.9658 c 0,0.21875 0.1875,0.39062 0.40625,0.39062 0.21875,0 0.39062,-0.17187 0.39062,-0.39062 v -2.89063 l 2.34375,3.03125 c 0.10938,0.14063 0.21875,0.25 0.40625,0.25 h 0.0312 c 0.21875,0 0.39063,-0.1875 0.39063,-0.40625 v -3.8125 c 0,-0.21875 -0.17188,-0.39062 -0.39063,-0.39062 -0.21875,0 -0.39062,0.17187 -0.39062,0.39062 v 2.79688 l -2.28125,-2.95313 c -0.10938,-0.14062 -0.21875,-0.23437 -0.40625,-0.23437 h -0.0937 c -0.21875,0 -0.40625,0.1875 -0.40625,0.40625 z m 0,0"
           style="fill:#000000;fill-opacity:1;stroke:none;stroke-width:0.91882312" />
        <path
           inkscape:connector-curvature="0"
           id="path11790"
           d="m -862.50444,189.87158 c 0,0.28125 0.21875,0.5 0.5,0.5 h 1.59375 c 1.75,0 2.96875,-1.21875 2.96875,-2.79688 v -0.0156 c 0,-1.57813 -1.21875,-2.78125 -2.96875,-2.78125 h -1.59375 c -0.28125,0 -0.5,0.20312 -0.5,0.48437 z m 0.98437,-0.39063 v -3.8125 h 1.10938 c 1.17187,0 1.9375,0.8125 1.9375,1.90625 v 0.0156 c 0,1.09375 -0.76563,1.89062 -1.9375,1.89062 z m 0,0"
           style="fill:#000000;fill-opacity:1;stroke:none;stroke-width:0.91882312" />
        <path
           inkscape:connector-curvature="0"
           id="path11786"
           d="m -856.07484,189.91845 c 0,0.28125 0.21875,0.5 0.5,0.5 0.26563,0 0.48438,-0.21875 0.48438,-0.5 v -1.5 h 1.23437 l 1.35938,1.73438 c 0.125,0.15625 0.26562,0.26562 0.48437,0.26562 0.25,0 0.46875,-0.1875 0.46875,-0.46875 0,-0.14062 -0.0625,-0.25 -0.15625,-0.375 l -1.0625,-1.34375 c 0.75,-0.23437 1.26563,-0.78125 1.26563,-1.67187 v -0.0156 c 0,-0.48437 -0.17188,-0.90625 -0.46875,-1.21875 -0.35938,-0.34375 -0.90625,-0.54687 -1.60938,-0.54687 h -2 c -0.28125,0 -0.5,0.20312 -0.5,0.48437 z m 0.98438,-2.375 v -1.875 h 1.4375 c 0.71875,0 1.15625,0.32813 1.15625,0.92188 v 0.0156 c 0,0.57813 -0.45313,0.9375 -1.15625,0.9375 z m 0,0"
           style="fill:#000000;fill-opacity:1;stroke:none;stroke-width:0.91882312" />
        <path
           inkscape:connector-curvature="0"
           id="path11782"
           d="m -850.03236,189.91845 c 0,0.28125 0.20312,0.5 0.48437,0.5 0.28125,0 0.5,-0.21875 0.5,-0.5 v -4.70312 c 0,-0.26563 -0.21875,-0.48438 -0.5,-0.48438 -0.28125,0 -0.48437,0.21875 -0.48437,0.48438 z m 0,0"
           style="fill:#000000;fill-opacity:1;stroke:none;stroke-width:0.91882312" />
        <path
           inkscape:connector-curvature="0"
           id="path11778"
           d="m -845.30736,190.4497 h 0.0469 c 0.28125,0 0.46875,-0.15625 0.57813,-0.39062 l 1.96875,-4.64063 c 0.0156,-0.0625 0.0469,-0.14062 0.0469,-0.21875 0,-0.26562 -0.21875,-0.46875 -0.48437,-0.46875 -0.23438,0 -0.42188,0.15625 -0.48438,0.32813 l -1.64062,4.0625 -1.60938,-4.03125 c -0.0781,-0.21875 -0.25,-0.35938 -0.5,-0.35938 -0.28125,0 -0.5,0.21875 -0.5,0.48438 0,0.0781 0.0312,0.15625 0.0625,0.23437 l 1.95313,4.60938 c 0.10937,0.23437 0.28125,0.39062 0.5625,0.39062 z m 0,0"
           style="fill:#000000;fill-opacity:1;stroke:none;stroke-width:0.91882312" />
        <path
           inkscape:connector-curvature="0"
           id="path11774"
           d="m -841.02284,190.37158 h 3.29688 c 0.23437,0 0.4375,-0.1875 0.4375,-0.4375 0,-0.25 -0.20313,-0.4375 -0.4375,-0.4375 h -2.8125 v -1.51563 h 2.40625 c 0.25,0 0.4375,-0.1875 0.4375,-0.42187 0,-0.25 -0.1875,-0.45313 -0.4375,-0.45313 h -2.40625 v -1.45312 h 2.76562 c 0.25,0 0.4375,-0.1875 0.4375,-0.4375 0,-0.25 -0.1875,-0.4375 -0.4375,-0.4375 h -3.25 c -0.28125,0 -0.5,0.20312 -0.5,0.48437 v 4.60938 c 0,0.28125 0.21875,0.5 0.5,0.5 z m 0,0"
           style="fill:#000000;fill-opacity:1;stroke:none;stroke-width:0.91882312" />
        <path
           inkscape:connector-curvature="0"
           id="path11770"
           d="m -857.66444,127.52644 c 0,0.28125 0.21875,0.5 0.5,0.5 0.26562,0 0.48437,-0.21875 0.48437,-0.5 v -1.5 h 1.23438 l 1.35937,1.73438 c 0.125,0.15625 0.26563,0.26562 0.48438,0.26562 0.25,0 0.46875,-0.1875 0.46875,-0.46875 0,-0.14062 -0.0625,-0.25 -0.15625,-0.375 l -1.0625,-1.34375 c 0.75,-0.23437 1.26562,-0.78125 1.26562,-1.67187 v -0.0156 c 0,-0.48437 -0.17187,-0.90625 -0.46875,-1.21875 -0.35937,-0.34375 -0.90625,-0.54687 -1.60937,-0.54687 h -2 c -0.28125,0 -0.5,0.20312 -0.5,0.48437 z m 0.98437,-2.375 v -1.875 h 1.4375 c 0.71875,0 1.15625,0.32813 1.15625,0.92188 v 0.0156 c 0,0.57813 -0.45312,0.9375 -1.15625,0.9375 z m 0,0"
           style="fill:#000000;fill-opacity:1;stroke:none;stroke-width:0.91882312" />
        <path
           inkscape:connector-curvature="0"
           id="path11766"
           d="m -851.15886,127.97957 h 3.29688 c 0.23437,0 0.4375,-0.1875 0.4375,-0.4375 0,-0.25 -0.20313,-0.4375 -0.4375,-0.4375 h -2.8125 v -1.51563 h 2.40625 c 0.25,0 0.4375,-0.1875 0.4375,-0.42187 0,-0.25 -0.1875,-0.45313 -0.4375,-0.45313 h -2.40625 v -1.45312 h 2.76562 c 0.25,0 0.4375,-0.1875 0.4375,-0.4375 0,-0.25 -0.1875,-0.4375 -0.4375,-0.4375 h -3.25 c -0.28125,0 -0.5,0.20312 -0.5,0.48437 v 4.60938 c 0,0.28125 0.21875,0.5 0.5,0.5 z m 0,0"
           style="fill:#000000;fill-opacity:1;stroke:none;stroke-width:0.91882312" />
        <path
           inkscape:connector-curvature="0"
           id="path11762"
           d="m -844.1541,128.05769 c 1.17188,0 2,-0.625 2,-1.67187 v -0.0156 c 0,-0.92187 -0.60937,-1.34375 -1.79687,-1.64062 -1.07813,-0.25 -1.34375,-0.45313 -1.34375,-0.875 v -0.0156 c 0,-0.375 0.34375,-0.67187 0.92187,-0.67187 0.4375,0 0.84375,0.15625 1.28125,0.42187 0.0781,0.0469 0.15625,0.0781 0.26563,0.0781 0.25,0 0.45312,-0.20313 0.45312,-0.45313 0,-0.1875 -0.0937,-0.32812 -0.21875,-0.39062 -0.5,-0.34375 -1.0625,-0.53125 -1.76562,-0.53125 -1.10938,0 -1.92188,0.67187 -1.92188,1.625 v 0.0156 c 0,1.03125 0.67188,1.39063 1.875,1.67188 1.03125,0.25 1.26563,0.46875 1.26563,0.85937 v 0.0156 c 0,0.42187 -0.39063,0.70312 -1,0.70312 -0.60938,0 -1.10938,-0.20312 -1.5625,-0.57812 -0.0625,-0.0469 -0.15625,-0.0781 -0.29688,-0.0781 -0.25,0 -0.45312,0.20313 -0.45312,0.45313 0,0.15625 0.0781,0.29687 0.1875,0.375 0.625,0.46875 1.34375,0.70312 2.10937,0.70312 z m 0,0"
           style="fill:#000000;fill-opacity:1;stroke:none;stroke-width:0.91882312" />
        <path
           inkscape:connector-curvature="0"
           id="path876"
           d="m -900.13264,297.40625 c 0,-1.55859 -1.27734,-2.83203 -2.83593,-2.83203 h -21.77735 c -1.55859,0 -2.83203,1.27344 -2.83203,2.83203 v 33.08984 c 0,1.5586 1.27344,2.83594 2.83203,2.83594 h 21.77735 c 1.55859,0 2.83593,-1.27734 2.83593,-2.83594 z m 0,0"
           style="fill:#5599ff;fill-opacity:1;fill-rule:nonzero;stroke:none;stroke-width:0.91882312" />
        <path
           inkscape:connector-curvature="0"
           id="path914"
           style="font-style:normal;font-variant:normal;font-weight:normal;font-stretch:normal;font-size:medium;line-height:1.25;font-family:'Trebuchet MS';-inkscape-font-specification:'Trebuchet MS';letter-spacing:0px;word-spacing:0px;fill:#ffffff;fill-opacity:1;stroke:none;stroke-width:0.88074034"
           d="m -883.99822,303.40369 v -5.48547 h 0.74887 v 4.81148 h 2.47875 v 0.67399 z" />
        <path
           inkscape:connector-curvature="0"
           id="path916"
           style="font-style:normal;font-variant:normal;font-weight:normal;font-stretch:normal;font-size:medium;line-height:1.25;font-family:'Trebuchet MS';-inkscape-font-specification:'Trebuchet MS';letter-spacing:0px;word-spacing:0px;fill:#ffffff;fill-opacity:1;stroke:none;stroke-width:0.88074034"
           d="m -879.37021,301.29188 v 2.11181 h -0.74887 v -5.48547 q 0.84997,-0.0374 1.02595,-0.0374 2.38889,0 2.38889,1.59883 0,1.84971 -2.11181,1.84971 -0.12731,0 -0.55416,-0.0374 z m 0,-2.69968 v 2.02569 q 0.47553,0.0375 0.50174,0.0375 1.3929,0 1.3929,-1.0971 0,-1.00348 -1.48651,-1.00348 -0.14977,0 -0.40813,0.0374 z" />
        <path
           inkscape:connector-curvature="0"
           id="path918"
           style="font-style:normal;font-variant:normal;font-weight:normal;font-stretch:normal;font-size:medium;line-height:1.25;font-family:'Trebuchet MS';-inkscape-font-specification:'Trebuchet MS';letter-spacing:0px;word-spacing:0px;fill:#ffffff;fill-opacity:1;stroke:none;stroke-width:0.88074034"
           d="m -875.08668,298.5922 v 1.52395 h 1.92834 v 0.63654 h -1.92834 v 2.651 h -0.74887 v -5.48547 h 3.38863 v 0.67398 z" />
        <path
           inkscape:connector-curvature="0"
           id="path921"
           style="font-style:normal;font-variant:normal;font-weight:normal;font-stretch:normal;font-size:medium;line-height:1.25;font-family:'Trebuchet MS';-inkscape-font-specification:'Trebuchet MS';letter-spacing:0px;word-spacing:0px;fill:#ffffff;fill-opacity:1;stroke:none;stroke-width:0.88074034"
           d="m -845.59925,303.52472 v -2.651 h -2.39638 v 2.651 h -0.74887 v -5.48547 h 0.74887 v 2.19793 h 2.39638 v -2.19793 h 0.74887 v 5.48547 z" />
        <path
           inkscape:connector-curvature="0"
           id="path923"
           style="font-style:normal;font-variant:normal;font-weight:normal;font-stretch:normal;font-size:medium;line-height:1.25;font-family:'Trebuchet MS';-inkscape-font-specification:'Trebuchet MS';letter-spacing:0px;word-spacing:0px;fill:#ffffff;fill-opacity:1;stroke:none;stroke-width:0.88074034"
           d="m -842.97821,301.41291 v 2.11181 h -0.74887 v -5.48547 q 0.84997,-0.0374 1.02595,-0.0374 2.3889,0 2.3889,1.59883 0,1.84971 -2.11181,1.84971 -0.12731,0 -0.55417,-0.0374 z m 0,-2.69968 v 2.0257 q 0.47553,0.0374 0.50175,0.0374 1.39289,0 1.39289,-1.09709 0,-1.00349 -1.4865,-1.00349 -0.14978,0 -0.40814,0.0374 z" />
        <path
           inkscape:connector-curvature="0"
           id="path925"
           style="font-style:normal;font-variant:normal;font-weight:normal;font-stretch:normal;font-size:medium;line-height:1.25;font-family:'Trebuchet MS';-inkscape-font-specification:'Trebuchet MS';letter-spacing:0px;word-spacing:0px;fill:#ffffff;fill-opacity:1;stroke:none;stroke-width:0.88074034"
           d="m -838.69467,298.71323 v 1.52395 h 1.92833 v 0.63654 h -1.92833 v 2.651 h -0.74887 v -5.48547 h 3.38863 v 0.67398 z" />
        <path
           inkscape:connector-curvature="0"
           id="path928"
           style="font-style:normal;font-variant:normal;font-weight:normal;font-stretch:normal;font-size:medium;line-height:1.25;font-family:'Trebuchet MS';-inkscape-font-specification:'Trebuchet MS';letter-spacing:0px;word-spacing:0px;fill:#ffffff;fill-opacity:1;stroke:none;stroke-width:0.88074034"
           d="m -916.33708,303.28265 v -5.48546 h 0.74887 v 5.48546 z" />
        <path
           inkscape:connector-curvature="0"
           id="path930"
           style="font-style:normal;font-variant:normal;font-weight:normal;font-stretch:normal;font-size:medium;line-height:1.25;font-family:'Trebuchet MS';-inkscape-font-specification:'Trebuchet MS';letter-spacing:0px;word-spacing:0px;fill:#ffffff;fill-opacity:1;stroke:none;stroke-width:0.88074034"
           d="m -910.78047,303.35754 -2.83447,-4.01019 v 3.9353 h -0.71143 v -5.48546 h 0.29955 l 2.75958,3.79302 v -3.79302 h 0.71143 v 5.56035 z" />
        <path
           inkscape:connector-curvature="0"
           id="path1032"
           style="font-style:normal;font-variant:normal;font-weight:normal;font-stretch:normal;font-size:2.82222223px;line-height:1.25;font-family:'Trebuchet MS';-inkscape-font-specification:'Trebuchet MS';letter-spacing:0px;word-spacing:0px;fill:#000000;fill-opacity:1;stroke:none;stroke-width:0.9585526"
           d="m -892.85214,351.43769 -1.95201,-3.14027 q -0.3345,0 -1.0584,-0.05 v 3.1902 h -0.99851 v -7.31397 q 0.055,0 0.77381,-0.0362 0.7239,-0.0399 1.0534,-0.0399 2.63605,0 2.63605,2.09685 0,0.68896 -0.42434,1.24311 -0.4244,0.54916 -1.0085,0.68397 l 2.1218,3.36492 z m -3.01041,-6.41532 v 2.37639 q 0.3594,0.05 0.6989,0.05 0.89871,0 1.30801,-0.28947 0.4094,-0.28947 0.4094,-1.03346 0,-0.61404 -0.4393,-0.88366 -0.4394,-0.26954 -1.38791,-0.26954 -0.1498,0 -0.5891,0.05 z" />
        <path
           inkscape:connector-curvature="0"
           id="path1034"
           style="font-style:normal;font-variant:normal;font-weight:normal;font-stretch:normal;font-size:2.82222223px;line-height:1.25;font-family:'Trebuchet MS';-inkscape-font-specification:'Trebuchet MS';letter-spacing:0px;word-spacing:0px;fill:#000000;fill-opacity:1;stroke:none;stroke-width:0.9585526"
           d="m -891.8037,348.75173 q 0,-1.23812 0.664,-1.99697 0.66899,-0.76385 1.75735,-0.76385 1.14826,0 1.7823,0.73389 0.63405,0.72889 0.63405,2.02693 0,1.29304 -0.64902,2.04192 -0.64902,0.74389 -1.76733,0.74389 -1.14328,0 -1.78231,-0.75389 -0.63904,-0.75384 -0.63904,-2.03192 z m 0.99849,0 q 0,2.01196 1.42286,2.01196 0.66399,0 1.03843,-0.53919 0.37943,-0.53916 0.37943,-1.47277 0,-1.98701 -1.41786,-1.98701 -0.64902,0 -1.03844,0.52923 -0.38442,0.5292 -0.38442,1.45778 z" />
        <path
           inkscape:connector-curvature="0"
           id="path1036"
           style="font-style:normal;font-variant:normal;font-weight:normal;font-stretch:normal;font-size:2.82222223px;line-height:1.25;font-family:'Trebuchet MS';-inkscape-font-specification:'Trebuchet MS';letter-spacing:0px;word-spacing:0px;fill:#000000;fill-opacity:1;stroke:none;stroke-width:0.9585526"
           d="m -885.15374,351.05327 -0.3345,0.48427 h -0.47429 v -7.63847 h 0.94857 v 2.58608 q 0.13481,-0.18477 0.50424,-0.33947 0.37444,-0.15469 0.73389,-0.15469 1.09834,0 1.77734,0.75884 0.68396,0.75885 0.68396,1.91712 0,1.33797 -0.68396,2.10681 -0.68399,0.76385 -1.85223,0.76385 -0.37942,0 -0.74887,-0.13984 -0.36444,-0.14492 -0.55416,-0.34454 z m 0.13977,-3.8442 v 3.08535 q 0,0.0801 0.35446,0.26447 0.35446,0.1797 0.53919,0.1797 0.96853,0 1.3879,-0.46431 0.41937,-0.46427 0.41937,-1.55762 0,-0.90866 -0.48926,-1.41789 -0.48927,-0.50923 -1.31801,-0.50923 -0.17473,0 -0.48926,0.14963 -0.30954,0.14998 -0.40439,0.26954 z" />
        <path
           inkscape:connector-curvature="0"
           id="path1038"
           style="font-style:normal;font-variant:normal;font-weight:normal;font-stretch:normal;font-size:2.82222223px;line-height:1.25;font-family:'Trebuchet MS';-inkscape-font-specification:'Trebuchet MS';letter-spacing:0px;word-spacing:0px;fill:#000000;fill-opacity:1;stroke:none;stroke-width:0.9585526"
           d="m -880.52572,351.10319 0.36443,-0.91862 q 0.27968,0.2047 0.69396,0.34454 0.41938,0.13477 0.74888,0.13477 0.58412,0 0.93858,-0.31954 0.35432,-0.31953 0.35432,-0.81377 0,-0.36946 -0.19962,-0.68396 -0.19455,-0.31954 -0.9885,-0.69396 l -0.58912,-0.27462 q -0.74888,-0.3496 -1.04842,-0.82876 -0.29454,-0.47928 -0.29454,-1.15327 0,-0.81874 0.57911,-1.35793 0.57912,-0.53919 1.48774,-0.53919 1.21319,0 1.68746,0.39442 l -0.29454,0.86866 q -0.19962,-0.14492 -0.60908,-0.27969 -0.40938,-0.13477 -0.75888,-0.13477 -0.50923,0 -0.80377,0.28947 -0.28947,0.28946 -0.28947,0.74388 0,0.27969 0.1047,0.50923 0.1047,0.22969 0.28947,0.38443 0.18984,0.15469 0.76885,0.43434 l 0.59907,0.28476 q 0.74889,0.35432 1.04843,0.8487 0.30468,0.48927 0.30468,1.24811 0,0.82377 -0.664,1.39789 -0.659,0.57415 -1.76735,0.57415 -0.9735,0 -1.66246,-0.45931 z" />
        <path
           inkscape:connector-curvature="0"
           id="path1040"
           style="font-style:normal;font-variant:normal;font-weight:normal;font-stretch:normal;font-size:2.82222223px;line-height:1.25;font-family:'Trebuchet MS';-inkscape-font-specification:'Trebuchet MS';letter-spacing:0px;word-spacing:0px;fill:#000000;fill-opacity:1;stroke:none;stroke-width:0.9585526"
           d="m -874.4599,346.09076 v 3.40985 q 0,1.23812 1.07338,1.23812 0.46931,0 0.8587,-0.26954 0.38942,-0.26954 0.51423,-0.62408 v -3.75431 h 0.94858 v 5.34693 h -0.94858 v -0.73889 q -0.15977,0.31447 -0.644,0.57912 -0.47931,0.25976 -0.93862,0.25976 -0.87865,0 -1.34796,-0.50423 -0.46427,-0.50427 -0.46427,-1.43285 v -3.5097 z" />
        <path
           inkscape:connector-curvature="0"
           id="path1042"
           style="font-style:normal;font-variant:normal;font-weight:normal;font-stretch:normal;font-size:2.82222223px;line-height:1.25;font-family:'Trebuchet MS';-inkscape-font-specification:'Trebuchet MS';letter-spacing:0px;word-spacing:0px;fill:#000000;fill-opacity:1;stroke:none;stroke-width:0.9585526"
           d="m -868.78843,344.0688 q 0.24454,0 0.41434,0.17462 0.17463,0.16991 0.17463,0.40939 0,0.24454 -0.17463,0.41938 -0.16955,0.16955 -0.41434,0.16955 -0.23984,0 -0.41439,-0.16955 -0.16991,-0.17462 -0.16991,-0.41938 0,-0.24455 0.16991,-0.41435 0.16955,-0.16992 0.41439,-0.16992 z m -0.51923,7.36889 v -4.54816 h -0.73389 v -0.79877 h 1.68246 v 5.34693 z" />
        <path
           inkscape:connector-curvature="0"
           id="path1044"
           style="font-style:normal;font-variant:normal;font-weight:normal;font-stretch:normal;font-size:2.82222223px;line-height:1.25;font-family:'Trebuchet MS';-inkscape-font-specification:'Trebuchet MS';letter-spacing:0px;word-spacing:0px;fill:#000000;fill-opacity:1;stroke:none;stroke-width:0.9585526"
           d="m -866.51189,346.83961 h -0.61908 v -0.74885 h 0.61908 v -1.11831 l 0.94858,-0.36446 v 1.48277 h 1.46777 v 0.74885 h -1.46777 v 2.656 q 0,0.674 0.22462,0.95854 0.22969,0.28476 0.73388,0.28476 0.36446,0 0.75389,-0.18477 l 0.13984,0.83377 q -0.58912,0.14963 -1.29304,0.14963 -0.63404,0 -1.07339,-0.46931 -0.43434,-0.47427 -0.43434,-1.19319 z" />
        <path
           inkscape:connector-curvature="0"
           id="path1046"
           style="font-style:normal;font-variant:normal;font-weight:normal;font-stretch:normal;font-size:2.82222223px;line-height:1.25;font-family:'Trebuchet MS';-inkscape-font-specification:'Trebuchet MS';letter-spacing:0px;word-spacing:0px;fill:#000000;fill-opacity:1;stroke:none;stroke-width:0.9585526"
           d="m -858.2943,348.85657 h -3.85416 q 0,0.93858 0.51419,1.44281 0.45435,0.43935 1.16827,0.43935 0.81377,0 1.35793,-0.47427 l 0.39938,0.68396 q -0.21954,0.21955 -0.67396,0.37943 -0.56915,0.20976 -1.26808,0.20976 -1.0085,0 -1.71242,-0.68396 -0.78381,-0.75389 -0.78381,-2.02697 0,-1.323 0.80377,-2.12177 0.71892,-0.71392 1.70242,-0.71392 1.14328,0 1.79231,0.644 0.62904,0.61908 0.62904,1.64254 0,0.31446 -0.075,0.57912 z m -2.30151,-2.06688 q -0.63404,0 -1.06342,0.40938 -0.40938,0.38942 -0.46427,0.96854 h 2.96051 q 0,-0.57412 -0.35939,-0.95854 -0.39439,-0.41938 -1.07335,-0.41938 z" />
        <path
           inkscape:connector-curvature="0"
           id="path933"
           style="font-style:normal;font-variant:normal;font-weight:normal;font-stretch:normal;font-size:medium;line-height:1.25;font-family:'Trebuchet MS';-inkscape-font-specification:'Trebuchet MS';letter-spacing:0px;word-spacing:0px;fill:#000000;fill-opacity:1;stroke:none;stroke-width:0.88074034"
           d="m -898.94379,21.605208 h -0.88242 L -904.5965,8.6310479 h 1.93957 l 3.29377,9.4270161 3.17146,-9.4270161 h 1.87842 z" />
        <path
           inkscape:connector-curvature="0"
           id="path935"
           style="font-style:normal;font-variant:normal;font-weight:normal;font-stretch:normal;font-size:medium;line-height:1.25;font-family:'Trebuchet MS';-inkscape-font-specification:'Trebuchet MS';letter-spacing:0px;word-spacing:0px;fill:#000000;fill-opacity:1;stroke:none;stroke-width:0.88074034"
           d="m -884.71153,9.1028355 -0.58537,1.4939945 q -0.83873,-0.6115769 -2.63851,-0.6115769 -1.68621,0 -2.70841,1.4503099 -1.01347,1.45031 -1.01347,3.739354 0,2.184202 1.03968,3.547144 1.04841,1.354205 2.69967,1.354205 1.79978,0 2.76957,-1.275574 l 0.96105,1.336732 q -1.52021,1.511468 -3.91409,1.511468 -2.50747,0 -3.94904,-1.80852 -1.44157,-1.808519 -1.44157,-4.770297 0,-2.865673 1.53768,-4.76156 1.53767,-1.8958873 3.97524,-1.8958873 2.0881,0 3.26757,0.6902078 z" />
        <path
           inkscape:connector-curvature="0"
           id="path937"
           style="font-style:normal;font-variant:normal;font-weight:normal;font-stretch:normal;font-size:medium;line-height:1.25;font-family:'Trebuchet MS';-inkscape-font-specification:'Trebuchet MS';letter-spacing:0px;word-spacing:0px;fill:#000000;fill-opacity:1;stroke:none;stroke-width:0.88074034"
           d="m -880.43923,10.203673 v 3.555881 h 4.49945 v 1.485257 h -4.49945 v 6.18566 h -1.74736 V 8.6310479 h 7.90681 v 1.5726251 z" />
        <path
           inkscape:connector-curvature="0"
           id="path939"
           style="font-style:normal;font-variant:normal;font-weight:normal;font-stretch:normal;font-size:medium;line-height:1.25;font-family:'Trebuchet MS';-inkscape-font-specification:'Trebuchet MS';letter-spacing:0px;word-spacing:0px;fill:#000000;fill-opacity:1;stroke:none;stroke-width:0.88074034"
           d="m -872.70716,17.009647 v -1.528942 h 3.73936 v 1.528942 z" />
        <path
           inkscape:connector-curvature="0"
           id="path941"
           style="font-style:normal;font-variant:normal;font-weight:normal;font-stretch:normal;font-size:medium;line-height:1.25;font-family:'Trebuchet MS';-inkscape-font-specification:'Trebuchet MS';letter-spacing:0px;word-spacing:0px;fill:#000000;fill-opacity:1;stroke:none;stroke-width:0.88074034"
           d="m -859.11268,21.430471 -3.4161,-5.495452 q -0.58536,0 -1.8522,-0.08737 v 5.58282 h -1.74736 V 8.6310479 q 0.0961,0 1.3542,-0.061158 1.26684,-0.069895 1.84347,-0.069895 4.61304,0 4.61304,3.6694591 0,1.20568 -0.74263,2.175465 -0.74263,0.961049 -1.76484,1.196943 l 3.71315,5.888608 z m -5.2683,-11.226798 v 4.158721 q 0.62905,0.08737 1.22315,0.08737 1.57263,0 2.28905,-0.506735 0.71642,-0.506735 0.71642,-1.808519 0,-1.074628 -0.76884,-1.546415 -0.76884,-0.471788 -2.42884,-0.471788 -0.2621,0 -1.03094,0.08737 z" />
        <path
           inkscape:connector-curvature="0"
           id="path943"
           style="font-style:normal;font-variant:normal;font-weight:normal;font-stretch:normal;font-size:medium;line-height:1.25;font-family:'Trebuchet MS';-inkscape-font-specification:'Trebuchet MS';letter-spacing:0px;word-spacing:0px;fill:#000000;fill-opacity:1;stroke:none;stroke-width:0.88074034"
           d="m -852.76102,21.430471 v -9.811435 l -2.60357,1.625046 v -1.633783 q 0.98726,-0.497998 2.09683,-1.371678 1.11831,-0.8736812 1.72989,-1.6599939 h 0.52421 V 21.430471 Z" />
      </g>
    </g>
  </g>
</svg>
